principal\client$5.class
principal\personne$7.class
principal\vols$6.class
principal\aeroport$3.class
principal\reservation$2.class
principal\compagnie$1.class
principal\pays$1.class
principal\client$2.class
principal\compagnie$5.class
principal\reservation$5.class
principal\compagnie.class
principal\passager$2.class
principal\pays$4.class
principal\vols$3.class
principal\pays$5.class
principal\client$6.class
principal\passager$1.class
principal\reservation$1.class
principal\compagnie$2.class
principal\passager.class
principal\compagnie$4.class
principal\reservation.class
principal\reservation$4.class
principal\aeroport.class
principal\personne$4.class
principal\personne.class
principal\escale.class
principal\vols.class
principal\escale$1.class
principal\personne$1.class
principal\aeroport$6.class
principal\compagnie$3.class
principal\pays.class
principal\aeroport$5.class
principal\personne$2.class
principal\vols$1.class
principal\vols$4.class
principal\pays$6.class
principal\aeroport$2.class
principal\pays$2.class
principal\personne$5.class
principal\reservation$3.class
principal\client$3.class
principal\escale$2.class
principal\client$1.class
principal\personne$3.class
principal\aeroport$4.class
principal\client.class
principal\reservation$6.class
principal\vols$5.class
principal\aeroport$1.class
principal\vols$2.class
principal\compagnie$6.class
principal\client$4.class
principal\personne$6.class
principal\pays$3.class
