C:\Users\l0ww\Documents\NetBeansProjects\CompagnieAerienneSwing\src\main\java\principal\reservation.java
C:\Users\l0ww\Documents\NetBeansProjects\CompagnieAerienneSwing\src\main\java\principal\aeroport.java
C:\Users\l0ww\Documents\NetBeansProjects\CompagnieAerienneSwing\src\main\java\principal\vols.java
C:\Users\l0ww\Documents\NetBeansProjects\CompagnieAerienneSwing\src\main\java\principal\personne.java
C:\Users\l0ww\Documents\NetBeansProjects\CompagnieAerienneSwing\src\main\java\principal\compagnie.java
C:\Users\l0ww\Documents\NetBeansProjects\CompagnieAerienneSwing\src\main\java\principal\escale.java
C:\Users\l0ww\Documents\NetBeansProjects\CompagnieAerienneSwing\src\main\java\principal\passager.java
C:\Users\l0ww\Documents\NetBeansProjects\CompagnieAerienneSwing\src\main\java\principal\pays.java
C:\Users\l0ww\Documents\NetBeansProjects\CompagnieAerienneSwing\src\main\java\principal\client.java
