C:\Users\damie\OneDrive\Bureau\damien-jisseau\compagnieaerienne\src\main\java\com\compagnieaerienneswing\dao\AeroportDAO.java
C:\Users\damie\OneDrive\Bureau\damien-jisseau\compagnieaerienne\src\main\java\com\compagnieaerienneswing\principal\Pays.java
C:\Users\damie\OneDrive\Bureau\damien-jisseau\compagnieaerienne\src\main\java\com\compagnieaerienneswing\dao\ReservationDAO.java
C:\Users\damie\OneDrive\Bureau\damien-jisseau\compagnieaerienne\src\main\java\com\compagnieaerienneswing\dao\CompagnieDAO.java
C:\Users\damie\OneDrive\Bureau\damien-jisseau\compagnieaerienne\src\main\java\com\compagnieaerienneswing\principal\Reservation.java
C:\Users\damie\OneDrive\Bureau\damien-jisseau\compagnieaerienne\src\main\java\com\compagnieaerienneswing\dao\VolDAO.java
C:\Users\damie\OneDrive\Bureau\damien-jisseau\compagnieaerienne\src\main\java\com\compagnieaerienneswing\principal\Aeroport.java
C:\Users\damie\OneDrive\Bureau\damien-jisseau\compagnieaerienne\src\main\java\com\compagnieaerienneswing\principal\Compagnie.java
C:\Users\damie\OneDrive\Bureau\damien-jisseau\compagnieaerienne\src\main\java\com\compagnieaerienneswing\dao\PersonneDAO.java
C:\Users\damie\OneDrive\Bureau\damien-jisseau\compagnieaerienne\src\main\java\com\compagnieaerienneswing\principal\Compte.java
C:\Users\damie\OneDrive\Bureau\damien-jisseau\compagnieaerienne\src\main\java\com\compagnieaerienneswing\principal\Client.java
C:\Users\damie\OneDrive\Bureau\damien-jisseau\compagnieaerienne\src\main\java\com\compagnieaerienneswing\principal\Vol.java
C:\Users\damie\OneDrive\Bureau\damien-jisseau\compagnieaerienne\src\main\java\com\compagnieaerienneswing\dao\MySQL.java
C:\Users\damie\OneDrive\Bureau\damien-jisseau\compagnieaerienne\src\main\java\com\compagnieaerienneswing\dao\PaysDAO.java
C:\Users\damie\OneDrive\Bureau\damien-jisseau\compagnieaerienne\src\main\java\com\compagnieaerienneswing\dao\ClientDAO.java
